R Basics – Stat 250
…
# A tibble: 4 × 6
  season episode title            imdb_rating total_votes air_date  
   <dbl>   <dbl> <chr>                  <dbl>       <dbl> <date>    
1      1       1 Pilot                    7.6        3706 2005-03-24
2      2       7 The Client               8.6        2631 2005-11-08
3      4      13 Job Fair                 7.9        1977 2008-05-08
4      7      11 Classy Christmas         8.9        2138 2010-12-09

Extracting columns

Similar to extracting rows, we can use a numeric index to extract the columns of a data frame. For example, to extract the 3rd column, we can run

office_ratings[,3]

# A tibble: 188 × 1
   title            
   <chr>            
 1 Pilot            
 2 Diversity Day    
 3 Health Care      
 4 The Alliance     
 5 Basketball       
 6 Hot Girl         
 7 The Dundies      
 8 Sexual Harassment
 9 Office Olympics  
10 The Fire         
# ℹ 178 more rows

Alternatively, we can pass in the column name in quotes instead of the column number

office_ratings[,"title"]

# A tibble: 188 × 1
   title            
   <chr>            
 1 Pilot            
 2 Diversity Day    
 3 Health Care      
 4 The Alliance     
 5 Basketball       
 6 Hot Girl         
 7 The Dundies      
 8 Sexual Harassment
 9 Office Olympics  
10 The Fire         
# ℹ 178 more rows
…
title[-1]

returns all but the first title—that is, it kicks out the first title. To kick out multiple elements, we need to negate a vector of indices. For example, below we kick out the first 10 titles

title[-c(1:10)]

And now we kick out the 5th, 50th, and 150th titles

title[-c(5, 50, 150)]

This idea can be adapted to lists and data frames. For example, to kick out the first row of office_ratings, we run

office_ratings[-1,]

# A tibble: 187 × 6
   season episode title             imdb_rating total_votes air_date  
    <dbl>   <dbl> <chr>                   <dbl>       <dbl> <date>    
 1      1       2 Diversity Day             8.3        3566 2005-03-29
 2      1       3 Health Care               7.9        2983 2005-04-05
 3      1       4 The Alliance              8.1        2886 2005-04-12
 4      1       5 Basketball                8.4        3179 2005-04-19
 5      1       6 Hot Girl                  7.8        2852 2005-04-26
 6      2       1 The Dundies               8.7        3213 2005-09-20
 7      2       2 Sexual Harassment         8.2        2736 2005-09-27
 8      2       3 Office Olympics           8.4        2742 2005-10-04
 9      2       4 The Fire                  8.4        2713 2005-10-11
10      2       5 Halloween                 8.2        2561 2005-10-18
# ℹ 177 more rows
…
